<?xml version="1.0" encoding="UTF-8" standalone="no"?>
<!-- Created with Inkscape (http://www.inkscape.org/) -->

<svg
   xmlns:dc="http://purl.org/dc/elements/1.1/"
   xmlns:cc="http://creativecommons.org/ns#"
   xmlns:rdf="http://www.w3.org/1999/02/22-rdf-syntax-ns#"
   xmlns:svg="http://www.w3.org/2000/svg"
   xmlns="http://www.w3.org/2000/svg"
   xmlns:sodipodi="http://sodipodi.sourceforge.net/DTD/sodipodi-0.dtd"
   xmlns:inkscape="http://www.inkscape.org/namespaces/inkscape"
   width="20"
   height="18"
   viewBox="0 0 20 18"
   id="svg2"
   version="1.1"
   inkscape:version="0.91 r13725"
   sodipodi:docname="btn_quantize.svg">
  <defs
     id="defs4">
    <pattern
       y="0"
       x="0"
       height="6"
       width="6"
       patternUnits="userSpaceOnUse"
       id="EMFhbasepattern" />
  </defs>
  <sodipodi:namedview
     id="base"
     pagecolor="#ffffff"
     bordercolor="#666666"
     borderopacity="1.0"
     inkscape:pageopacity="0.0"
     inkscape:pageshadow="2"
     inkscape:zoom="8.8486816"
     inkscape:cx="-3.6932601"
     inkscape:cy="9.7343785"
     inkscape:document-units="px"
     inkscape:current-layer="layer1"
     showgrid="false"
     units="px"
     inkscape:window-width="1920"
     inkscape:window-height="1028"
     inkscape:window-x="-8"
     inkscape:window-y="-8"
     inkscape:window-maximized="1"
     showguides="true"
     inkscape:guide-bbox="true">
    <sodipodi:guide
       position="-4.5549256,14.943352"
       orientation="0,1"
       id="guide4888" />
    <sodipodi:guide
       position="3.436172,4.7147476"
       orientation="0,1"
       id="guide4890" />
  </sodipodi:namedview>
  <metadata
     id="metadata7">
    <rdf:RDF>
      <cc:Work
         rdf:about="">
        <dc:format>image/svg+xml</dc:format>
        <dc:type
           rdf:resource="http://purl.org/dc/dcmitype/StillImage" />
        <dc:title></dc:title>
        <dc:creator>
          <cc:Agent>
            <dc:title>Jorge Rosa</dc:title>
          </cc:Agent>
        </dc:creator>
        <dc:description>Email: jorge.bigarte@gmail.com
Site:https://sites.google.com/site/jorgerosaportfolio</dc:description>
      </cc:Work>
    </rdf:RDF>
  </metadata>
  <g
     inkscape:label="Layer 1"
     inkscape:groupmode="layer"
     id="layer1"
     transform="translate(0,-1034.3622)">
    <g
       id="g4956"
       transform="matrix(0,0.02442813,-0.02442813,0,15.321547,1036.2396)" />
    <g
       id="g4151"
       transform="translate(3.3867518,0)">
      <path
         id="path4958"
         d="m 5.9088365,1045.5012 c -0.8164724,0 -1.5843094,-0.2922 -2.1609466,-0.8219 -0.5777973,-0.5314 -0.8959295,-1.2363 -0.8959295,-1.9868 0,-1.5488 1.3710705,-2.8087 3.0568761,-2.8087 l 3.4273732,0 0,-2.5141 -3.4273732,0 c -3.1949111,0 -5.7919192,2.388 -5.7919192,5.3228 0,1.4221 0.6015487,2.7593 1.6951682,3.7645 1.0947519,1.0054 2.5498089,1.5592 4.0967786,1.5592 l 3.4273726,0 0,-2.5153 -3.4273726,0 z"
         inkscape:connector-curvature="0"
         style="fill:#553289;fill-opacity:1" />
      <path
         id="path4964"
         d="m 8.4087425,1044.7064 4.2416245,-2.4135 -3.3405655,0.9404 -0.437482,-2.2197 -3.5308773,1.8664 2.8499873,-0.2635 z"
         inkscape:connector-curvature="0"
         style="fill:#553289;fill-opacity:1" />
      <rect
         y="1037.4188"
         x="10.199541"
         height="2.455616"
         width="2.910038"
         id="rect4988"
         style="opacity:1;fill:#553289;fill-opacity:1;stroke:none;stroke-width:2.03600001;stroke-linecap:round;stroke-linejoin:round;stroke-miterlimit:4;stroke-dasharray:none;stroke-opacity:1" />
      <rect
         y="1045.5403"
         x="10.185414"
         height="2.455616"
         width="2.910038"
         id="rect4988-1"
         style="opacity:1;fill:#553289;fill-opacity:1;stroke:none;stroke-width:2.03600001;stroke-linecap:round;stroke-linejoin:round;stroke-miterlimit:4;stroke-dasharray:none;stroke-opacity:1" />
    </g>
  </g>
</svg>
