<?xml version="1.0" encoding="UTF-8" standalone="no"?>
<!-- Created with Inkscape (http://www.inkscape.org/) -->

<svg
   xmlns:dc="http://purl.org/dc/elements/1.1/"
   xmlns:cc="http://creativecommons.org/ns#"
   xmlns:rdf="http://www.w3.org/1999/02/22-rdf-syntax-ns#"
   xmlns:svg="http://www.w3.org/2000/svg"
   xmlns="http://www.w3.org/2000/svg"
   xmlns:xlink="http://www.w3.org/1999/xlink"
   xmlns:sodipodi="http://sodipodi.sourceforge.net/DTD/sodipodi-0.dtd"
   xmlns:inkscape="http://www.inkscape.org/namespaces/inkscape"
   width="40"
   height="40"
   viewBox="0 0 40 40.000001"
   id="svg4222"
   version="1.1"
   inkscape:version="0.91 r13725"
   sodipodi:docname="pointer_knob3.svg">
  <defs
     id="defs4224">
    <linearGradient
       inkscape:collect="always"
       id="linearGradient4231">
      <stop
         style="stop-color:#330080;stop-opacity:1"
         offset="0"
         id="stop4233" />
      <stop
         style="stop-color:#b380ff;stop-opacity:1"
         offset="1"
         id="stop4235" />
    </linearGradient>
    <clipPath
       clipPathUnits="userSpaceOnUse"
       id="clipPath4910">
      <rect
         style="fill:#1a1a1a;fill-opacity:0;stroke:#ff0000;stroke-width:1.69064653;stroke-miterlimit:4;stroke-dasharray:none"
         id="rect4912"
         width="50.79744"
         height="35.654499"
         x="-3.4462209"
         y="1009.5824"
         clip-path="none" />
    </clipPath>
    <clipPath
       clipPathUnits="userSpaceOnUse"
       id="clipPath4154">
      <rect
         style="fill:#1a1a1a;fill-opacity:0;stroke:#ff0000;stroke-width:0.96399999;stroke-miterlimit:4;stroke-dasharray:none"
         id="rect4156"
         width="57.790737"
         height="29.346857"
         x="-8.2727222"
         y="1011.5597" />
    </clipPath>
    <filter
       style="color-interpolation-filters:sRGB"
       inkscape:label="Blur"
       id="filter4209">
      <feGaussianBlur
         stdDeviation="1 1.05"
         result="blur"
         id="feGaussianBlur4211" />
    </filter>
    <filter
       style="color-interpolation-filters:sRGB"
       inkscape:label="Blur"
       id="filter4321">
      <feGaussianBlur
         stdDeviation="1 1.05"
         result="blur"
         id="feGaussianBlur4323" />
    </filter>
    <filter
       style="color-interpolation-filters:sRGB;"
       inkscape:label="Opacity"
       id="filter4207">
      <feGaussianBlur
         stdDeviation="0.5 0.55"
         result="fbSourceGraphic"
         id="feGaussianBlur4209" />
      <feColorMatrix
         result="fbSourceGraphicAlpha"
         in="fbSourceGraphic"
         values="0 0 0 -1 0 0 0 0 -1 0 0 0 0 -1 0 0 0 0 1 0"
         id="feColorMatrix4223" />
      <feColorMatrix
         id="feColorMatrix4225"
         values="1 0 0 0 0 0 1 0 0 0 0 0 1 0 0 0 0 0 1 -9.6 "
         result="colormatrix"
         in="fbSourceGraphic" />
      <feComposite
         id="feComposite4227"
         in2="colormatrix"
         operator="arithmetic"
         k2="1"
         result="fbSourceGraphic" />
      <feColorMatrix
         result="fbSourceGraphicAlpha"
         in="fbSourceGraphic"
         values="0 0 0 -1 0 0 0 0 -1 0 0 0 0 -1 0 0 0 0 1 0"
         id="feColorMatrix4235" />
      <feColorMatrix
         id="feColorMatrix4237"
         values="1 0 0 0 0 0 1 0 0 0 0 0 1 0 0 0 0 0 1 -9.6 "
         result="colormatrix"
         in="fbSourceGraphic" />
      <feComposite
         id="feComposite4239"
         in2="colormatrix"
         operator="arithmetic"
         k2="1.38778e-016"
         result="fbSourceGraphic" />
      <feColorMatrix
         result="fbSourceGraphicAlpha"
         in="fbSourceGraphic"
         values="0 0 0 -1 0 0 0 0 -1 0 0 0 0 -1 0 0 0 0 1 0"
         id="feColorMatrix4247" />
      <feColorMatrix
         id="feColorMatrix4249"
         values="1 0 0 0 0 0 1 0 0 0 0 0 1 0 0 0 0 0 1 -9.6 "
         result="colormatrix"
         in="fbSourceGraphic" />
      <feComposite
         id="feComposite4251"
         in2="colormatrix"
         operator="arithmetic"
         k2="1"
         result="fbSourceGraphic" />
      <feColorMatrix
         result="fbSourceGraphicAlpha"
         in="fbSourceGraphic"
         values="0 0 0 -1 0 0 0 0 -1 0 0 0 0 -1 0 0 0 0 1 0"
         id="feColorMatrix4253" />
      <feColorMatrix
         id="feColorMatrix4255"
         values="1 0 0 0 0 0 1 0 0 0 0 0 1 0 0 0 0 0 1 -9.6 "
         result="colormatrix"
         in="fbSourceGraphic" />
      <feComposite
         id="feComposite4257"
         in2="colormatrix"
         operator="arithmetic"
         k2="1"
         result="fbSourceGraphic" />
      <feColorMatrix
         result="fbSourceGraphicAlpha"
         in="fbSourceGraphic"
         values="0 0 0 -1 0 0 0 0 -1 0 0 0 0 -1 0 0 0 0 1 0"
         id="feColorMatrix4259" />
      <feColorMatrix
         id="feColorMatrix4261"
         values="1 0 0 0 0 0 1 0 0 0 0 0 1 0 0 0 0 0 1 -9.6 "
         result="colormatrix"
         in="fbSourceGraphic" />
      <feComposite
         id="feComposite4263"
         in2="colormatrix"
         operator="arithmetic"
         k2="0.6"
         result="fbSourceGraphic" />
      <feColorMatrix
         result="fbSourceGraphicAlpha"
         in="fbSourceGraphic"
         values="0 0 0 -1 0 0 0 0 -1 0 0 0 0 -1 0 0 0 0 1 0"
         id="feColorMatrix4265" />
      <feColorMatrix
         id="feColorMatrix4267"
         values="1 0 0 0 0 0 1 0 0 0 0 0 1 0 0 0 0 0 1 -9.6 "
         result="colormatrix"
         in="fbSourceGraphic" />
      <feComposite
         id="feComposite4269"
         in2="colormatrix"
         operator="arithmetic"
         k2="0.6"
         result="composite" />
    </filter>
    <pattern
       y="0"
       x="0"
       height="6"
       width="6"
       patternUnits="userSpaceOnUse"
       id="EMFhbasepattern" />
    <radialGradient
       inkscape:collect="always"
       xlink:href="#linearGradient4231"
       id="radialGradient4237"
       cx="23.8125"
       cy="1024.5006"
       fx="23.8125"
       fy="1024.5006"
       r="2.3747422"
       gradientTransform="matrix(3.5174932,0,0,3.661941,-63.760305,-2723.5193)"
       gradientUnits="userSpaceOnUse" />
  </defs>
  <sodipodi:namedview
     id="base"
     pagecolor="#ffffff"
     bordercolor="#666666"
     borderopacity="1.0"
     inkscape:pageopacity="0.0"
     inkscape:pageshadow="2"
     inkscape:zoom="45.254834"
     inkscape:cx="15.346106"
     inkscape:cy="29.254572"
     inkscape:document-units="px"
     inkscape:current-layer="layer1"
     showgrid="false"
     units="px"
     inkscape:window-width="1920"
     inkscape:window-height="1028"
     inkscape:window-x="-8"
     inkscape:window-y="-8"
     inkscape:window-maximized="1"
     showguides="true"
     inkscape:guide-bbox="true">
    <sodipodi:guide
       position="38.903399,3981.4657"
       orientation="0,1"
       id="guide4179" />
    <sodipodi:guide
       position="21.140565,20.002405"
       orientation="0,1"
       id="guide4272" />
    <sodipodi:guide
       position="20.011435,37.492243"
       orientation="1,0"
       id="guide4274" />
    <sodipodi:guide
       position="21.308594,33.73047"
       orientation="0,1"
       id="guide4186" />
    <sodipodi:guide
       position="23.842757,26.693282"
       orientation="0,1"
       id="guide4188" />
  </sodipodi:namedview>
  <metadata
     id="metadata4227">
    <rdf:RDF>
      <cc:Work
         rdf:about="">
        <dc:format>image/svg+xml</dc:format>
        <dc:type
           rdf:resource="http://purl.org/dc/dcmitype/StillImage" />
        <dc:title />
      </cc:Work>
    </rdf:RDF>
  </metadata>
  <g
     inkscape:label="Layer 1"
     inkscape:groupmode="layer"
     id="layer1"
     transform="translate(0,-1012.3622)">
    <rect
       style="opacity:1;fill:url(#radialGradient4237);fill-opacity:1;stroke:#000000;stroke-width:1;stroke-linecap:butt;stroke-linejoin:miter;stroke-miterlimit:4;stroke-dasharray:none;stroke-opacity:1"
       id="rect4229"
       width="4.0090876"
       height="8.0090876"
       x="17.995457"
       y="1018.1539"
       rx="0.46748313"
       ry="0.44053313" />
  </g>
</svg>
