<?xml version="1.0" encoding="UTF-8" standalone="no"?>
<!-- Created with Inkscape (http://www.inkscape.org/) -->

<svg
   xmlns:dc="http://purl.org/dc/elements/1.1/"
   xmlns:cc="http://creativecommons.org/ns#"
   xmlns:rdf="http://www.w3.org/1999/02/22-rdf-syntax-ns#"
   xmlns:svg="http://www.w3.org/2000/svg"
   xmlns="http://www.w3.org/2000/svg"
   xmlns:xlink="http://www.w3.org/1999/xlink"
   xmlns:sodipodi="http://sodipodi.sourceforge.net/DTD/sodipodi-0.dtd"
   xmlns:inkscape="http://www.inkscape.org/namespaces/inkscape"
   width="40"
   height="40"
   viewBox="0 0 40 40.000001"
   id="svg4222"
   version="1.1"
   inkscape:version="0.92.0 r15299"
   sodipodi:docname="pointer_knob1.svg">
  <defs
     id="defs4224">
    <linearGradient
       inkscape:collect="always"
       id="linearGradient4207">
      <stop
         style="stop-color:#333333;stop-opacity:1"
         offset="0"
         id="stop4209" />
      <stop
         style="stop-color:#666666;stop-opacity:1"
         offset="1"
         id="stop4211" />
    </linearGradient>
    <linearGradient
       inkscape:collect="always"
       id="linearGradient4199">
      <stop
         style="stop-color:#cccccc;stop-opacity:1"
         offset="0"
         id="stop4201" />
      <stop
         style="stop-color:#ffffff;stop-opacity:1"
         offset="1"
         id="stop4203" />
    </linearGradient>
    <clipPath
       clipPathUnits="userSpaceOnUse"
       id="clipPath4910">
      <rect
         style="fill:#1a1a1a;fill-opacity:0;stroke:#ff0000;stroke-width:1.69064653;stroke-miterlimit:4;stroke-dasharray:none"
         id="rect4912"
         width="50.79744"
         height="35.654499"
         x="-3.4462209"
         y="1009.5824"
         clip-path="none" />
    </clipPath>
    <clipPath
       clipPathUnits="userSpaceOnUse"
       id="clipPath4154">
      <rect
         style="fill:#1a1a1a;fill-opacity:0;stroke:#ff0000;stroke-width:0.96399999;stroke-miterlimit:4;stroke-dasharray:none"
         id="rect4156"
         width="57.790737"
         height="29.346857"
         x="-8.2727222"
         y="1011.5597" />
    </clipPath>
    <filter
       style="color-interpolation-filters:sRGB"
       inkscape:label="Blur"
       id="filter4209">
      <feGaussianBlur
         stdDeviation="1 1.05"
         result="blur"
         id="feGaussianBlur4211" />
    </filter>
    <filter
       style="color-interpolation-filters:sRGB"
       inkscape:label="Blur"
       id="filter4321">
      <feGaussianBlur
         stdDeviation="1 1.05"
         result="blur"
         id="feGaussianBlur4323" />
    </filter>
    <filter
       style="color-interpolation-filters:sRGB;"
       inkscape:label="Opacity"
       id="filter4207">
      <feGaussianBlur
         stdDeviation="0.5 0.55"
         result="fbSourceGraphic"
         id="feGaussianBlur4209" />
      <feColorMatrix
         result="fbSourceGraphicAlpha"
         in="fbSourceGraphic"
         values="0 0 0 -1 0 0 0 0 -1 0 0 0 0 -1 0 0 0 0 1 0"
         id="feColorMatrix4223" />
      <feColorMatrix
         id="feColorMatrix4225"
         values="1 0 0 0 0 0 1 0 0 0 0 0 1 0 0 0 0 0 1 -9.6 "
         result="colormatrix"
         in="fbSourceGraphic" />
      <feComposite
         id="feComposite4227"
         in2="colormatrix"
         operator="arithmetic"
         k2="1"
         result="fbSourceGraphic" />
      <feColorMatrix
         result="fbSourceGraphicAlpha"
         in="fbSourceGraphic"
         values="0 0 0 -1 0 0 0 0 -1 0 0 0 0 -1 0 0 0 0 1 0"
         id="feColorMatrix4235" />
      <feColorMatrix
         id="feColorMatrix4237"
         values="1 0 0 0 0 0 1 0 0 0 0 0 1 0 0 0 0 0 1 -9.6 "
         result="colormatrix"
         in="fbSourceGraphic" />
      <feComposite
         id="feComposite4239"
         in2="colormatrix"
         operator="arithmetic"
         k2="1.38778e-016"
         result="fbSourceGraphic" />
      <feColorMatrix
         result="fbSourceGraphicAlpha"
         in="fbSourceGraphic"
         values="0 0 0 -1 0 0 0 0 -1 0 0 0 0 -1 0 0 0 0 1 0"
         id="feColorMatrix4247" />
      <feColorMatrix
         id="feColorMatrix4249"
         values="1 0 0 0 0 0 1 0 0 0 0 0 1 0 0 0 0 0 1 -9.6 "
         result="colormatrix"
         in="fbSourceGraphic" />
      <feComposite
         id="feComposite4251"
         in2="colormatrix"
         operator="arithmetic"
         k2="1"
         result="fbSourceGraphic" />
      <feColorMatrix
         result="fbSourceGraphicAlpha"
         in="fbSourceGraphic"
         values="0 0 0 -1 0 0 0 0 -1 0 0 0 0 -1 0 0 0 0 1 0"
         id="feColorMatrix4253" />
      <feColorMatrix
         id="feColorMatrix4255"
         values="1 0 0 0 0 0 1 0 0 0 0 0 1 0 0 0 0 0 1 -9.6 "
         result="colormatrix"
         in="fbSourceGraphic" />
      <feComposite
         id="feComposite4257"
         in2="colormatrix"
         operator="arithmetic"
         k2="1"
         result="fbSourceGraphic" />
      <feColorMatrix
         result="fbSourceGraphicAlpha"
         in="fbSourceGraphic"
         values="0 0 0 -1 0 0 0 0 -1 0 0 0 0 -1 0 0 0 0 1 0"
         id="feColorMatrix4259" />
      <feColorMatrix
         id="feColorMatrix4261"
         values="1 0 0 0 0 0 1 0 0 0 0 0 1 0 0 0 0 0 1 -9.6 "
         result="colormatrix"
         in="fbSourceGraphic" />
      <feComposite
         id="feComposite4263"
         in2="colormatrix"
         operator="arithmetic"
         k2="0.6"
         result="fbSourceGraphic" />
      <feColorMatrix
         result="fbSourceGraphicAlpha"
         in="fbSourceGraphic"
         values="0 0 0 -1 0 0 0 0 -1 0 0 0 0 -1 0 0 0 0 1 0"
         id="feColorMatrix4265" />
      <feColorMatrix
         id="feColorMatrix4267"
         values="1 0 0 0 0 0 1 0 0 0 0 0 1 0 0 0 0 0 1 -9.6 "
         result="colormatrix"
         in="fbSourceGraphic" />
      <feComposite
         id="feComposite4269"
         in2="colormatrix"
         operator="arithmetic"
         k2="0.6"
         result="composite" />
    </filter>
    <pattern
       y="0"
       x="0"
       height="6"
       width="6"
       patternUnits="userSpaceOnUse"
       id="EMFhbasepattern" />
    <linearGradient
       inkscape:collect="always"
       xlink:href="#linearGradient4199"
       id="linearGradient4205"
       x1="19.9865"
       y1="1020.6677"
       x2="19.9865"
       y2="1028.1428"
       gradientUnits="userSpaceOnUse"
       gradientTransform="matrix(1.1759244,0,0,1.1462193,-3.5184876,-149.20841)" />
    <linearGradient
       inkscape:collect="always"
       xlink:href="#linearGradient4207"
       id="linearGradient4213"
       x1="19.9865"
       y1="1020.8624"
       x2="19.9865"
       y2="1027.3641"
       gradientUnits="userSpaceOnUse"
       gradientTransform="matrix(1.2449039,0,0,1.1354538,-4.8980782,-138.12796)" />
  </defs>
  <sodipodi:namedview
     id="base"
     pagecolor="#ffffff"
     bordercolor="#666666"
     borderopacity="1.0"
     inkscape:pageopacity="0.0"
     inkscape:pageshadow="2"
     inkscape:zoom="51.370629"
     inkscape:cx="17.71533"
     inkscape:cy="26.10274"
     inkscape:document-units="px"
     inkscape:current-layer="layer1"
     showgrid="false"
     units="px"
     inkscape:window-width="1920"
     inkscape:window-height="1028"
     inkscape:window-x="-8"
     inkscape:window-y="-8"
     inkscape:window-maximized="1"
     showguides="true"
     inkscape:guide-bbox="true">
    <sodipodi:guide
       position="38.903399,3981.4657"
       orientation="0,1"
       id="guide4179"
       inkscape:locked="false" />
    <sodipodi:guide
       position="21.140565,20.002405"
       orientation="0,1"
       id="guide4272"
       inkscape:locked="false" />
    <sodipodi:guide
       position="19.9865,18.279664"
       orientation="1,0"
       id="guide4274"
       inkscape:locked="false" />
    <sodipodi:guide
       position="18.278928,31.924858"
       orientation="0,1"
       id="guide4166"
       inkscape:locked="false" />
    <sodipodi:guide
       position="15.534168,32.430984"
       orientation="0,1"
       id="guide4182"
       inkscape:locked="false" />
  </sodipodi:namedview>
  <metadata
     id="metadata4227">
    <rdf:RDF>
      <cc:Work
         rdf:about="">
        <dc:format>image/svg+xml</dc:format>
        <dc:type
           rdf:resource="http://purl.org/dc/dcmitype/StillImage" />
        <dc:title></dc:title>
      </cc:Work>
    </rdf:RDF>
  </metadata>
  <g
     inkscape:label="Layer 1"
     inkscape:groupmode="layer"
     id="layer1"
     transform="translate(0,-1012.3622)">
    <rect
       style="opacity:1;fill:url(#linearGradient4205);fill-opacity:1;stroke:none;stroke-width:0.62685269;stroke-linecap:butt;stroke-linejoin:miter;stroke-miterlimit:4;stroke-dasharray:none;stroke-opacity:1"
       id="rect4217-0"
       width="5"
       height="9.3084583"
       x="17.5"
       y="1020.4421"
       rx="0.58950019"
       ry="0.81200749" />
    <rect
       style="opacity:1;fill:url(#linearGradient4213);fill-opacity:1;stroke:none;stroke-width:0.68940699;stroke-linecap:butt;stroke-linejoin:miter;stroke-miterlimit:4;stroke-dasharray:none;stroke-opacity:1"
       id="rect4217"
       width="3.5"
       height="9"
       x="18.25"
       y="1019.9622"
       rx="0.51714194"
       ry="0.56935042" />
  </g>
</svg>
