<?xml version="1.0" encoding="UTF-8" standalone="no"?>
<!-- Created with Inkscape (http://www.inkscape.org/) -->

<svg
   xmlns:dc="http://purl.org/dc/elements/1.1/"
   xmlns:cc="http://creativecommons.org/ns#"
   xmlns:rdf="http://www.w3.org/1999/02/22-rdf-syntax-ns#"
   xmlns:svg="http://www.w3.org/2000/svg"
   xmlns="http://www.w3.org/2000/svg"
   xmlns:xlink="http://www.w3.org/1999/xlink"
   xmlns:sodipodi="http://sodipodi.sourceforge.net/DTD/sodipodi-0.dtd"
   xmlns:inkscape="http://www.inkscape.org/namespaces/inkscape"
   width="15"
   height="300"
   viewBox="0 0 15 300"
   id="svg2"
   version="1.1"
   inkscape:version="0.91 r13725"
   sodipodi:docname="rack_300.svg">
  <defs
     id="defs4">
    <linearGradient
       inkscape:collect="always"
       id="linearGradient4257">
      <stop
         style="stop-color:#f9f9f9;stop-opacity:1"
         offset="0"
         id="stop4259" />
      <stop
         style="stop-color:#333333;stop-opacity:1"
         offset="1"
         id="stop4261" />
    </linearGradient>
    <linearGradient
       inkscape:collect="always"
       id="linearGradient4159">
      <stop
         style="stop-color:#1e1e1e;stop-opacity:1"
         offset="0"
         id="stop4161" />
      <stop
         style="stop-color:#000000;stop-opacity:1"
         offset="1"
         id="stop4163" />
    </linearGradient>
    <radialGradient
       inkscape:collect="always"
       xlink:href="#linearGradient4159"
       id="radialGradient4165"
       cx="59"
       cy="993.13348"
       fx="59"
       fy="993.13348"
       r="59.147999"
       gradientUnits="userSpaceOnUse"
       gradientTransform="matrix(0.13695828,0,-3.5377927e-7,3.7341515,-118.58018,-2806.1474)" />
    <radialGradient
       inkscape:collect="always"
       xlink:href="#linearGradient4257"
       id="radialGradient4263-7-4-1"
       cx="8.9839144"
       cy="943.30743"
       fx="8.9839144"
       fy="943.30743"
       r="3.7432978"
       gradientUnits="userSpaceOnUse"
       gradientTransform="translate(-117.64863,99.495214)" />
    <radialGradient
       inkscape:collect="always"
       xlink:href="#linearGradient4257"
       id="radialGradient4263-7-4-4"
       cx="8.9839144"
       cy="943.30743"
       fx="8.9839144"
       fy="943.30743"
       r="3.7432978"
       gradientUnits="userSpaceOnUse"
       gradientTransform="matrix(0.87844249,0,0,0.87844249,-118.34778,-67.673176)" />
  </defs>
  <sodipodi:namedview
     id="base"
     pagecolor="#ffffff"
     bordercolor="#666666"
     borderopacity="1.0"
     inkscape:pageopacity="0.0"
     inkscape:pageshadow="2"
     inkscape:zoom="8.0681628"
     inkscape:cx="10.344909"
     inkscape:cy="21.779826"
     inkscape:document-units="px"
     inkscape:current-layer="g4219"
     showgrid="false"
     units="px"
     inkscape:window-width="1920"
     inkscape:window-height="1028"
     inkscape:window-x="4"
     inkscape:window-y="44"
     inkscape:window-maximized="0"
     objecttolerance="10"
     guidetolerance="9" />
  <metadata
     id="metadata7">
    <rdf:RDF>
      <cc:Work
         rdf:about="">
        <dc:format>image/svg+xml</dc:format>
        <dc:type
           rdf:resource="http://purl.org/dc/dcmitype/StillImage" />
        <dc:title />
        <dc:creator>
          <cc:Agent>
            <dc:title>Jorge Rosa</dc:title>
          </cc:Agent>
        </dc:creator>
        <dc:description>Email: jorge.bigarte@gmail.com
Site:https://sites.google.com/site/jorgerosaportfolio</dc:description>
      </cc:Work>
    </rdf:RDF>
  </metadata>
  <g
     inkscape:label="Layer 1"
     inkscape:groupmode="layer"
     id="layer1"
     transform="translate(0,-752.3622)">
    <g
       id="g4219"
       transform="matrix(-1,0,0,1,118,0)">
      <rect
         y="752.44586"
         x="-117.91636"
         height="299.8327"
         width="14.832714"
         id="rect4157"
         style="opacity:1;fill:url(#radialGradient4165);fill-opacity:1;stroke:#000000;stroke-width:0.16728601;stroke-miterlimit:4;stroke-dasharray:none"
         transform="scale(-1,1)" />
      <g
         id="g4234-7-4"
         transform="matrix(0.87844249,0,0,0.87844249,15.000223,129.23935)"
         style="opacity:0.5">
        <ellipse
           transform="scale(-1,1)"
           style="opacity:0.5;fill:#000000;fill-opacity:1;stroke:none;stroke-width:2.1960001;stroke-linejoin:round;stroke-miterlimit:4;stroke-dasharray:none"
           id="path4247-3-8-1-3"
           cx="-108.6144"
           cy="1044.7631"
           rx="3.7432978"
           ry="4.3644013" />
        <circle
           transform="scale(-1,1)"
           style="opacity:1;fill:url(#radialGradient4263-7-4-1);fill-opacity:1;stroke:none;stroke-width:2.1960001;stroke-linejoin:round;stroke-miterlimit:4;stroke-dasharray:none"
           id="path4247-4-9-7"
           cx="-108.66472"
           cy="1042.8026"
           r="3.7432978" />
        <path
           style="opacity:0.73000004;fill:#0000ff;fill-rule:evenodd;stroke:#000000;stroke-width:1px;stroke-linecap:butt;stroke-linejoin:miter;stroke-opacity:1"
           d="m 106.24294,1040.3411 5.0817,5.0817"
           id="path4289-5-7-8"
           inkscape:connector-curvature="0" />
      </g>
      <g
         id="g4151"
         style="opacity:0.5">
        <ellipse
           transform="scale(-1,1)"
           style="opacity:0.5;fill:#000000;fill-opacity:1;stroke:none;stroke-width:2.1960001;stroke-linejoin:round;stroke-miterlimit:4;stroke-dasharray:none"
           id="path4247-3-8-1-2"
           cx="-110.41174"
           cy="762.69025"
           rx="3.2882719"
           ry="3.8338757" />
        <circle
           transform="scale(-1,1)"
           style="opacity:1;fill:url(#radialGradient4263-7-4-4);fill-opacity:1;stroke:none;stroke-width:2.1960001;stroke-linejoin:round;stroke-miterlimit:4;stroke-dasharray:none"
           id="path4247-4-9-6"
           cx="-110.45593"
           cy="760.96814"
           r="3.2882719" />
        <path
           style="opacity:0.73000004;fill:#0000ff;fill-rule:evenodd;stroke:#000000;stroke-width:0.87844247px;stroke-linecap:butt;stroke-linejoin:miter;stroke-opacity:1"
           d="m 108.32854,758.80583 4.46398,4.46398"
           id="path4289-5-7-50"
           inkscape:connector-curvature="0" />
      </g>
    </g>
  </g>
</svg>
